^C:\USERS\DUYEN-PC\SOURCE\REPOS\PROJECT1\PROJECT1\DTHANG.CPP
/c /IE:\DHMT\SDL2\INCLUDE /ZI /nologo /W3 /WX- /diagnostics:classic /sdl /Od /Oy- /D _MBCS /Gm- /EHsc /RTC1 /MDd /GS /fp:precise /permissive- /Zc:wchar_t /Zc:forScope /Zc:inline /Fo"DEBUG\\" /Fd"DEBUG\VC141.PDB" /Gd /TP /analyze- /FC C:\USERS\DUYEN-PC\SOURCE\REPOS\PROJECT1\PROJECT1\DTHANG.CPP
^C:\USERS\DUYEN-PC\SOURCE\REPOS\PROJECT1\PROJECT1\DIEM.CPP
/c /IE:\DHMT\SDL2\INCLUDE /ZI /nologo /W3 /WX- /diagnostics:classic /sdl /Od /Oy- /D _MBCS /Gm- /EHsc /RTC1 /MDd /GS /fp:precise /permissive- /Zc:wchar_t /Zc:forScope /Zc:inline /Fo"DEBUG\\" /Fd"DEBUG\VC141.PDB" /Gd /TP /analyze- /FC C:\USERS\DUYEN-PC\SOURCE\REPOS\PROJECT1\PROJECT1\DIEM.CPP
^C:\USERS\DUYEN-PC\SOURCE\REPOS\PROJECT1\PROJECT1\CIRCLE.CPP
/c /IE:\DHMT\SDL2\INCLUDE /ZI /nologo /W3 /WX- /diagnostics:classic /sdl /Od /Oy- /D _MBCS /Gm- /EHsc /RTC1 /MDd /GS /fp:precise /permissive- /Zc:wchar_t /Zc:forScope /Zc:inline /Fo"DEBUG\\" /Fd"DEBUG\VC141.PDB" /Gd /TP /analyze- /FC C:\USERS\DUYEN-PC\SOURCE\REPOS\PROJECT1\PROJECT1\CIRCLE.CPP
^C:\USERS\DUYEN-PC\SOURCE\REPOS\PROJECT1\PROJECT1\DTRON.CPP
/c /IE:\DHMT\SDL2\INCLUDE /ZI /nologo /W3 /WX- /diagnostics:classic /sdl /Od /Oy- /D _MBCS /Gm- /EHsc /RTC1 /MDd /GS /fp:precise /permissive- /Zc:wchar_t /Zc:forScope /Zc:inline /Fo"DEBUG\\" /Fd"DEBUG\VC141.PDB" /Gd /TP /analyze- /FC C:\USERS\DUYEN-PC\SOURCE\REPOS\PROJECT1\PROJECT1\DTRON.CPP
^C:\USERS\DUYEN-PC\SOURCE\REPOS\PROJECT1\PROJECT1\ELLIPSE.CPP
/c /IE:\DHMT\SDL2\INCLUDE /ZI /nologo /W3 /WX- /diagnostics:classic /sdl /Od /Oy- /D _MBCS /Gm- /EHsc /RTC1 /MDd /GS /fp:precise /permissive- /Zc:wchar_t /Zc:forScope /Zc:inline /Fo"DEBUG\\" /Fd"DEBUG\VC141.PDB" /Gd /TP /analyze- /FC C:\USERS\DUYEN-PC\SOURCE\REPOS\PROJECT1\PROJECT1\ELLIPSE.CPP
^C:\USERS\DUYEN-PC\SOURCE\REPOS\PROJECT1\PROJECT1\MAIN.CPP
/c /IE:\DHMT\SDL2\INCLUDE /ZI /nologo /W3 /WX- /diagnostics:classic /sdl /Od /Oy- /D _MBCS /Gm- /EHsc /RTC1 /MDd /GS /fp:precise /permissive- /Zc:wchar_t /Zc:forScope /Zc:inline /Fo"DEBUG\\" /Fd"DEBUG\VC141.PDB" /Gd /TP /analyze- /FC C:\USERS\DUYEN-PC\SOURCE\REPOS\PROJECT1\PROJECT1\MAIN.CPP
^C:\USERS\DUYEN-PC\SOURCE\REPOS\PROJECT1\PROJECT1\LINE.CPP
/c /IE:\DHMT\SDL2\INCLUDE /ZI /nologo /W3 /WX- /diagnostics:classic /sdl /Od /Oy- /D _MBCS /Gm- /EHsc /RTC1 /MDd /GS /fp:precise /permissive- /Zc:wchar_t /Zc:forScope /Zc:inline /Fo"DEBUG\\" /Fd"DEBUG\VC141.PDB" /Gd /TP /analyze- /FC C:\USERS\DUYEN-PC\SOURCE\REPOS\PROJECT1\PROJECT1\LINE.CPP
^C:\USERS\DUYEN-PC\SOURCE\REPOS\PROJECT1\PROJECT1\PARAPOL.CPP
/c /IE:\DHMT\SDL2\INCLUDE /ZI /nologo /W3 /WX- /diagnostics:classic /sdl /Od /Oy- /D _MBCS /Gm- /EHsc /RTC1 /MDd /GS /fp:precise /permissive- /Zc:wchar_t /Zc:forScope /Zc:inline /Fo"DEBUG\\" /Fd"DEBUG\VC141.PDB" /Gd /TP /analyze- /FC C:\USERS\DUYEN-PC\SOURCE\REPOS\PROJECT1\PROJECT1\PARAPOL.CPP
^C:\USERS\DUYEN-PC\SOURCE\GITANOTHER\16520311_CG\PROJECT1\CIRCLE.CPP
/c /IE:\DHMT\SDL2\INCLUDE /ZI /nologo /W3 /WX- /diagnostics:classic /sdl /Od /Oy- /D _MBCS /Gm- /EHsc /RTC1 /MDd /GS /fp:precise /permissive- /Zc:wchar_t /Zc:forScope /Zc:inline /Fo"DEBUG\\" /Fd"DEBUG\VC141.PDB" /Gd /TP /analyze- /FC C:\USERS\DUYEN-PC\SOURCE\GITANOTHER\16520311_CG\PROJECT1\CIRCLE.CPP
^C:\USERS\DUYEN-PC\SOURCE\GITANOTHER\16520311_CG\PROJECT1\CLIPPING.CPP
/c /IE:\DHMT\SDL2\INCLUDE /ZI /nologo /W3 /WX- /diagnostics:classic /sdl /Od /Oy- /D _MBCS /Gm- /EHsc /RTC1 /MDd /GS /fp:precise /permissive- /Zc:wchar_t /Zc:forScope /Zc:inline /Fo"DEBUG\\" /Fd"DEBUG\VC141.PDB" /Gd /TP /analyze- /FC C:\USERS\DUYEN-PC\SOURCE\GITANOTHER\16520311_CG\PROJECT1\CLIPPING.CPP
^C:\USERS\DUYEN-PC\SOURCE\GITANOTHER\16520311_CG\PROJECT1\DIEM.CPP
/c /IE:\DHMT\SDL2\INCLUDE /ZI /nologo /W3 /WX- /diagnostics:classic /sdl /Od /Oy- /D _MBCS /Gm- /EHsc /RTC1 /MDd /GS /fp:precise /permissive- /Zc:wchar_t /Zc:forScope /Zc:inline /Fo"DEBUG\\" /Fd"DEBUG\VC141.PDB" /Gd /TP /analyze- /FC C:\USERS\DUYEN-PC\SOURCE\GITANOTHER\16520311_CG\PROJECT1\DIEM.CPP
^C:\USERS\DUYEN-PC\SOURCE\GITANOTHER\16520311_CG\PROJECT1\DRAWPOLYGON.CPP
/c /IE:\DHMT\SDL2\INCLUDE /ZI /nologo /W3 /WX- /diagnostics:classic /sdl /Od /Oy- /D _MBCS /Gm- /EHsc /RTC1 /MDd /GS /fp:precise /permissive- /Zc:wchar_t /Zc:forScope /Zc:inline /Fo"DEBUG\\" /Fd"DEBUG\VC141.PDB" /Gd /TP /analyze- /FC C:\USERS\DUYEN-PC\SOURCE\GITANOTHER\16520311_CG\PROJECT1\DRAWPOLYGON.CPP
^C:\USERS\DUYEN-PC\SOURCE\GITANOTHER\16520311_CG\PROJECT1\ELLIPSE.CPP
/c /IE:\DHMT\SDL2\INCLUDE /ZI /nologo /W3 /WX- /diagnostics:classic /sdl /Od /Oy- /D _MBCS /Gm- /EHsc /RTC1 /MDd /GS /fp:precise /permissive- /Zc:wchar_t /Zc:forScope /Zc:inline /Fo"DEBUG\\" /Fd"DEBUG\VC141.PDB" /Gd /TP /analyze- /FC C:\USERS\DUYEN-PC\SOURCE\GITANOTHER\16520311_CG\PROJECT1\ELLIPSE.CPP
^C:\USERS\DUYEN-PC\SOURCE\GITANOTHER\16520311_CG\PROJECT1\LINE.CPP
/c /IE:\DHMT\SDL2\INCLUDE /ZI /nologo /W3 /WX- /diagnostics:classic /sdl /Od /Oy- /D _MBCS /Gm- /EHsc /RTC1 /MDd /GS /fp:precise /permissive- /Zc:wchar_t /Zc:forScope /Zc:inline /Fo"DEBUG\\" /Fd"DEBUG\VC141.PDB" /Gd /TP /analyze- /FC C:\USERS\DUYEN-PC\SOURCE\GITANOTHER\16520311_CG\PROJECT1\LINE.CPP
^C:\USERS\DUYEN-PC\SOURCE\GITANOTHER\16520311_CG\PROJECT1\MAIN.CPP
/c /IE:\DHMT\SDL2\INCLUDE /ZI /nologo /W3 /WX- /diagnostics:classic /sdl /Od /Oy- /D _MBCS /Gm- /EHsc /RTC1 /MDd /GS /fp:precise /permissive- /Zc:wchar_t /Zc:forScope /Zc:inline /Fo"DEBUG\\" /Fd"DEBUG\VC141.PDB" /Gd /TP /analyze- /FC C:\USERS\DUYEN-PC\SOURCE\GITANOTHER\16520311_CG\PROJECT1\MAIN.CPP
^C:\USERS\DUYEN-PC\SOURCE\GITANOTHER\16520311_CG\PROJECT1\PARAPOL.CPP
/c /IE:\DHMT\SDL2\INCLUDE /ZI /nologo /W3 /WX- /diagnostics:classic /sdl /Od /Oy- /D _MBCS /Gm- /EHsc /RTC1 /MDd /GS /fp:precise /permissive- /Zc:wchar_t /Zc:forScope /Zc:inline /Fo"DEBUG\\" /Fd"DEBUG\VC141.PDB" /Gd /TP /analyze- /FC C:\USERS\DUYEN-PC\SOURCE\GITANOTHER\16520311_CG\PROJECT1\PARAPOL.CPP
